
%group(indexes);
%override;

%insert(indexes_addin_cpp) %{
#include <qlo/obj_termstructures.hpp>
%}

// For most of the QuantLib index classes, we have handwritten code in the
// QuantLibAddin layer to provide custom behavior.  In the QuantLibAddin
// namespace we define all of the constructors and memberfunctions of the
// QuantLibAddin wrapper classes.  See also the QuantLib namespace below.

namespace QuantLibAddin {

    class Index {
        public:
            void addFixings(const std::vector<QuantLib::Date>& dates,
                            const std::vector<QuantLib::Real>& values,
                            bool forceOverwrite);
    };

    class InterestRateIndex : public Index {};

    class IborIndex : public InterestRateIndex {};

    class SwapIndex : public InterestRateIndex {
        public:
            SwapIndex(const std::string& familyName,
                      const QuantLib::Period& p,
                      QuantLib::Natural fixingDays,
                      QuantLib::Currency& crr,
                      const QuantLib::Calendar& calendar,
                      const QuantLib::Period& fixedLegTenor,
                      QuantLib::BusinessDayConvention fixedLegBDC,
                      const QuantLib::DayCounter& fixedLegDayCounter,
                      const boost::shared_ptr<QuantLib::IborIndex>& index,
                      const QuantLib::Handle<QuantLib::YieldTermStructure>& disc);
    };

    class LiborSwap : public SwapIndex {
        public:
            LiborSwap(
                const QuantLib::Currency& currency,
                SwapIndex::FixingType fixingType,
                const QuantLib::Period& p,
                const QuantLib::Handle<QuantLib::YieldTermStructure>& f,
                const QuantLib::Handle<QuantLib::YieldTermStructure>& d);
    };

    class OvernightIndex : public IborIndex {};

    class Euribor : public IborIndex {
        public:
            %generate(c#, Euribor);
            Euribor(const QuantLib::Period& tenor,
                const QuantLib::Handle<QuantLib::YieldTermStructure>& YieldCurve);
    };

    class Eonia : public OvernightIndex {
        public:
            Eonia(const QuantLib::Handle<QuantLib::YieldTermStructure>& YieldCurve);
    };

    class EuriborSwapIsdaFixA : public SwapIndex {
      public:
            EuriborSwapIsdaFixA(const QuantLib::Period& tenor,
                                const QuantLib::Handle<QuantLib::YieldTermStructure>& forwarding,
                                const QuantLib::Handle<QuantLib::YieldTermStructure>& discounting);
    };
    
    class Libor : public IborIndex {
      public:
        Libor(const QuantLib::Currency& currency,
              const std::string& p,
              const QuantLib::Handle<QuantLib::YieldTermStructure>& hYTS);
    };

    class Sonia : public OvernightIndex {
      public:
        Sonia(const QuantLib::Handle<QuantLib::YieldTermStructure>& hYTS);
    };    
}

// In the QuantLib namespace we define member functions which are invoked
// directly on the underlying QuantLib objects.

namespace QuantLib {

    class Index {
        public:
            double fixing(const Date& fixingDate,
                                bool forecastTodaysFixing);
            Calendar fixingCalendar();
    };

    class InterestRateIndex : public Index {
        public:
            Natural fixingDays();
            %generate(c#, dayCounter);
            const DayCounter& dayCounter();
            Date valueDate(const Date& fixingDate);
            Period tenor();
    };

    class IborIndex : public InterestRateIndex {
        public:
            // For purposes of backward compatibility we use the %alias directive to export this function twice,
            // once under its old name (qlIborIndexBusinessDayConv) and once under its new name (qlIborIndexBusinessDayConvention)
            %alias(businessDayConvention, IborIndexBusinessDayConv);
            BusinessDayConvention businessDayConvention();
    };
}

